module podman-bootc

go 1.20

require (
	github.com/adrg/xdg v0.4.0
	github.com/containers/podman/v5 v5.0.0-rc2
	github.com/coreos/stream-metadata-go v0.4.4
	github.com/fsnotify/fsnotify v1.7.0
	github.com/sirupsen/logrus v1.9.3
	github.com/spf13/cobra v1.8.0
	golang.org/x/sys v0.17.0
)

require (
	dario.cat/mergo v1.0.0 // indirect
	github.com/Azure/go-ansiterm v0.0.0-20230124172434-306776ec8161 // indirect
	github.com/BurntSushi/toml v1.3.2 // indirect
	github.com/Microsoft/go-winio v0.6.1 // indirect
	github.com/Microsoft/hcsshim v0.12.0-rc.2 // indirect
	github.com/VividCortex/ewma v1.2.0 // indirect
	github.com/acarl005/stripansi v0.0.0-20180116102854-5a71ef0e047d // indirect
	github.com/asaskevich/govalidator v0.0.0-20230301143203-a9d515a09cc2 // indirect
	github.com/blang/semver/v4 v4.0.0 // indirect
	github.com/chzyer/readline v1.5.1 // indirect
	github.com/cilium/ebpf v0.11.0 // indirect
	github.com/containerd/cgroups/v3 v3.0.3 // indirect
	github.com/containerd/containerd v1.7.13 // indirect
	github.com/containerd/log v0.1.0 // indirect
	github.com/containerd/stargz-snapshotter/estargz v0.15.1 // indirect
	github.com/containers/buildah v1.34.1-0.20240201124221-b850c711ff5c // indirect
	github.com/containers/common v0.57.1-0.20240207210145-1eeaf97594e9 // indirect
	github.com/containers/image/v5 v5.29.2-0.20240130233108-e66a1ade2efc // indirect
	github.com/containers/libtrust v0.0.0-20230121012942-c1716e8a8d01 // indirect
	github.com/containers/ocicrypt v1.1.9 // indirect
	github.com/containers/psgo v1.9.0 // indirect
	github.com/containers/storage v1.52.1-0.20240202181245-1419a5980565 // indirect
	github.com/coreos/go-systemd/v22 v22.5.1-0.20231103132048-7d375ecc2b09 // indirect
	github.com/cyberphone/json-canonicalization v0.0.0-20231217050601-ba74d44ecf5f // indirect
	github.com/cyphar/filepath-securejoin v0.2.4 // indirect
	github.com/disiqueira/gotree/v3 v3.0.2 // indirect
	github.com/distribution/reference v0.5.0 // indirect
	github.com/docker/distribution v2.8.3+incompatible // indirect
	github.com/docker/docker v25.0.3+incompatible // indirect
	github.com/docker/docker-credential-helpers v0.8.1 // indirect
	github.com/docker/go-connections v0.5.0 // indirect
	github.com/docker/go-units v0.5.0 // indirect
	github.com/felixge/httpsnoop v1.0.4 // indirect
	github.com/go-jose/go-jose/v3 v3.0.1 // indirect
	github.com/go-logr/logr v1.3.0 // indirect
	github.com/go-logr/stdr v1.2.2 // indirect
	github.com/go-openapi/analysis v0.21.4 // indirect
	github.com/go-openapi/errors v0.21.0 // indirect
	github.com/go-openapi/jsonpointer v0.19.6 // indirect
	github.com/go-openapi/jsonreference v0.20.2 // indirect
	github.com/go-openapi/loads v0.21.2 // indirect
	github.com/go-openapi/runtime v0.26.0 // indirect
	github.com/go-openapi/spec v0.20.9 // indirect
	github.com/go-openapi/strfmt v0.22.0 // indirect
	github.com/go-openapi/swag v0.22.9 // indirect
	github.com/go-openapi/validate v0.22.1 // indirect
	github.com/godbus/dbus/v5 v5.1.1-0.20230522191255-76236955d466 // indirect
	github.com/gogo/protobuf v1.3.2 // indirect
	github.com/golang/groupcache v0.0.0-20210331224755-41bb18bfe9da // indirect
	github.com/golang/protobuf v1.5.3 // indirect
	github.com/google/go-containerregistry v0.17.0 // indirect
	github.com/google/go-intervals v0.0.2 // indirect
	github.com/google/uuid v1.6.0 // indirect
	github.com/gorilla/mux v1.8.1 // indirect
	github.com/gorilla/schema v1.2.1 // indirect
	github.com/hashicorp/errwrap v1.1.0 // indirect
	github.com/hashicorp/go-multierror v1.1.1 // indirect
	github.com/inconshreveable/mousetrap v1.1.0 // indirect
	github.com/jinzhu/copier v0.4.0 // indirect
	github.com/josharian/intern v1.0.0 // indirect
	github.com/json-iterator/go v1.1.12 // indirect
	github.com/klauspost/compress v1.17.5 // indirect
	github.com/klauspost/pgzip v1.2.6 // indirect
	github.com/kr/fs v0.1.0 // indirect
	github.com/letsencrypt/boulder v0.0.0-20230907030200-6d76a0f91e1e // indirect
	github.com/mailru/easyjson v0.7.7 // indirect
	github.com/manifoldco/promptui v0.9.0 // indirect
	github.com/mattn/go-runewidth v0.0.15 // indirect
	github.com/mattn/go-shellwords v1.0.12 // indirect
	github.com/mattn/go-sqlite3 v1.14.21 // indirect
	github.com/miekg/pkcs11 v1.1.1 // indirect
	github.com/mistifyio/go-zfs/v3 v3.0.1 // indirect
	github.com/mitchellh/mapstructure v1.5.0 // indirect
	github.com/moby/sys/mountinfo v0.7.1 // indirect
	github.com/moby/sys/user v0.1.0 // indirect
	github.com/moby/term v0.5.0 // indirect
	github.com/modern-go/concurrent v0.0.0-20180306012644-bacd9c7ef1dd // indirect
	github.com/modern-go/reflect2 v1.0.2 // indirect
	github.com/morikuni/aec v1.0.0 // indirect
	github.com/nxadm/tail v1.4.11 // indirect
	github.com/oklog/ulid v1.3.1 // indirect
	github.com/opencontainers/go-digest v1.0.0 // indirect
	github.com/opencontainers/image-spec v1.1.0-rc6 // indirect
	github.com/opencontainers/runc v1.1.12 // indirect
	github.com/opencontainers/runtime-spec v1.1.1-0.20230823135140-4fec88fd00a4
	github.com/opencontainers/runtime-tools v0.9.1-0.20230914150019-408c51e934dc // indirect
	github.com/opencontainers/selinux v1.11.0 // indirect
	github.com/ostreedev/ostree-go v0.0.0-20210805093236-719684c64e4f // indirect
	github.com/pkg/errors v0.9.1 // indirect
	github.com/pkg/sftp v1.13.6 // indirect
	github.com/proglottis/gpgme v0.1.3 // indirect
	github.com/rivo/uniseg v0.4.4 // indirect
	github.com/secure-systems-lab/go-securesystemslib v0.8.0 // indirect
	github.com/sigstore/fulcio v1.4.3 // indirect
	github.com/sigstore/rekor v1.2.2 // indirect
	github.com/sigstore/sigstore v1.8.1 // indirect
	github.com/spf13/pflag v1.0.5 // indirect
	github.com/stefanberger/go-pkcs11uri v0.0.0-20201008174630-78d3cae3a980 // indirect
	github.com/sylabs/sif/v2 v2.15.1 // indirect
	github.com/syndtr/gocapability v0.0.0-20200815063812-42c35b437635 // indirect
	github.com/tchap/go-patricia/v2 v2.3.1 // indirect
	github.com/titanous/rocacheck v0.0.0-20171023193734-afe73141d399 // indirect
	github.com/ulikunitz/xz v0.5.11 // indirect
	github.com/vbatts/tar-split v0.11.5 // indirect
	github.com/vbauerster/mpb/v8 v8.7.2 // indirect
	go.mongodb.org/mongo-driver v1.13.1 // indirect
	go.mozilla.org/pkcs7 v0.0.0-20210826202110-33d05740a352 // indirect
	go.opencensus.io v0.24.0 // indirect
	go.opentelemetry.io/contrib/instrumentation/net/http/otelhttp v0.45.0 // indirect
	go.opentelemetry.io/otel v1.21.0 // indirect
	go.opentelemetry.io/otel/metric v1.21.0 // indirect
	go.opentelemetry.io/otel/trace v1.21.0 // indirect
	golang.org/x/crypto v0.19.0 // indirect
	golang.org/x/exp v0.0.0-20231226003508-02704c960a9b // indirect
	golang.org/x/mod v0.14.0 // indirect
	golang.org/x/net v0.20.0 // indirect
	golang.org/x/sync v0.6.0 // indirect
	golang.org/x/term v0.17.0 // indirect
	golang.org/x/text v0.14.0 // indirect
	golang.org/x/time v0.3.0 // indirect
	golang.org/x/tools v0.17.0 // indirect
	google.golang.org/genproto/googleapis/rpc v0.0.0-20231212172506-995d672761c0 // indirect
	google.golang.org/grpc v1.60.1 // indirect
	google.golang.org/protobuf v1.32.0 // indirect
	gopkg.in/go-jose/go-jose.v2 v2.6.1 // indirect
	gopkg.in/tomb.v1 v1.0.0-20141024135613-dd632973f1e7 // indirect
	gopkg.in/yaml.v3 v3.0.1 // indirect
	sigs.k8s.io/yaml v1.4.0 // indirect
	tags.cncf.io/container-device-interface v0.6.2 // indirect
)
